{
  "tasks": [
    {
      "text": "Test",
      "day": "5th Feb 10.30am",
      "reminder": true,
      "id": 1
    },
    {
      "text": "Test 2",
      "day": "13 feb 11.30 am",
      "reminder": false,
      "id": 2
    },
    {
      "text": "Valentine's Day",
      "day": "14 Feb. Going to Biman Mela ",
      "reminder": true,
      "id": 3
    }
  ]
}